{
  "type": "array",
  "items": {
    "enum": [
      "Robert De Niro",
      "Jack Nicholson",
      "Marlon Brando",
      "Denzel Washington",
      "Katharine Hepburn",
      "Humphrey Bogart",
      "Meryl Streep",
      "Daniel Day-Lewis",
      "Sidney Poitier",
      "Clark Gable",
      "Ingrid Bergman",
      "Tom Hanks",
      "Elizabeth Taylor",
      "Bette Davis",
      "Gregory Peck",
      "Leonardo DiCaprio",
      "Cate Blanchett",
      "Audrey Hepburn",
      "Spencer Tracy",
      "Kate Winslet",
      "Shah Rukh Khan",
      "Viola Davis",
      "Sophia Loren",
      "Cary Grant",
      "Vivien Leigh",
      "Marilyn Monroe",
      "Laurence Olivier",
      "James Stewart",
      "Steve McQueen",
      "Diane Keaton"
    ]
  }
}